<?xml version="1.0" encoding="utf-8"?>
<!-- Generator: Adobe Illustrator 16.0.0, SVG Export Plug-In . SVG Version: 6.00 Build 0)  -->
<!DOCTYPE svg PUBLIC "-//W3C//DTD SVG 1.1//EN" "http://www.w3.org/Graphics/SVG/1.1/DTD/svg11.dtd">
<svg version="1.1" id="Layer_1" xmlns="http://www.w3.org/2000/svg" xmlns:xlink="http://www.w3.org/1999/xlink" x="0px" y="0px"
	 width="100px" height="100px" viewBox="0 0 100 100" enable-background="new 0 0 100 100" xml:space="preserve">
<g>
	<g id="Group-3" transform="translate(0.000000, 9.630625)">
		<path id="Fill-1" fill="#AAAAAA" d="M12.495,15.613c-1.057,0-1.915,0.864-1.915,1.927v49.966c0,0.124,0.181,0.269,0.416,0.269
			h78.008c0.235,0,0.418-0.145,0.418-0.269V17.54c0-1.063-0.858-1.927-1.915-1.927H12.495z M89.004,70.496H10.996
			c-1.721,0-3.124-1.343-3.124-2.99V17.54c0-2.564,2.073-4.648,4.623-4.648h75.012c2.55,0,4.621,2.084,4.621,4.648v49.966
			C92.128,69.154,90.727,70.496,89.004,70.496L89.004,70.496z"/>
	</g>
	<path id="Fill-4" fill="#FFFFFF" d="M47.174,33.294c0,0,11.563,10.762,1.88,17.88c-6.039,4.439-5.963,10.009-5.963,10.009
		s0.229,5.338,6.128,9.52c2.375,1.684-12.606-3.364-14.056-6.373c-1.449-3.008-5.124-16.963-0.806-23.561
		C38.676,34.173,47.174,33.294,47.174,33.294"/>
	<path id="Fill-6" opacity="0.26" fill="#ADADAD" enable-background="new    " d="M50.269,66.159c0,0-2.139-2.827,0-4.978
		c2.14-2.15,6.64-2.512,6.865-6.63c0.226-4.118-1.012-4.796-0.787-8.416s4.951-8.875,4.951-8.875s2.711,1.495,3.245,2.76
		c8.26,10.951,1.532,23.088-0.228,24.614C54.598,72.363,50.269,66.159,50.269,66.159"/>
	<path id="Fill-8" fill="#AAAAAA" d="M50.168,34.654c-9.615,0-17.437,7.866-17.437,17.536c0,9.667,7.822,17.535,17.437,17.535
		c9.615,0,17.437-7.868,17.437-17.535C67.605,42.52,59.783,34.654,50.168,34.654 M50.168,72.447
		c-11.107,0-20.144-9.088-20.144-20.257c0-11.17,9.037-20.257,20.144-20.257s20.144,9.087,20.144,20.257
		C70.313,63.359,61.275,72.447,50.168,72.447"/>
	<polygon id="Fill-10" fill="#FEFEFE" points="31.847,22.914 39.088,14.956 60.787,14.956 68.014,23.111 	"/>
	<path id="Fill-12" fill="#AAAAAA" d="M34.953,21.547l29.979,0.164l-4.763-5.374H39.692L34.953,21.547z M68.014,24.494h-0.007
		l-36.166-0.196c-0.545-0.003-1.037-0.329-1.255-0.829c-0.216-0.5-0.121-1.084,0.247-1.487l7.238-7.96
		c0.262-0.287,0.628-0.449,1.015-0.449h21.701c0.392,0,0.766,0.168,1.026,0.462l7.227,8.157c0.36,0.407,0.451,0.991,0.229,1.489
		C69.044,24.177,68.554,24.494,68.014,24.494L68.014,24.494z"/>
	<path id="Fill-14" fill="#AAAAAA" d="M14.717,22.099h6.216v-2.933h-6.216V22.099z M21.414,24.821h-7.177
		c-1.228,0-2.226-1.005-2.226-2.239v-3.899c0-1.234,0.998-2.239,2.226-2.239h7.177c1.227,0,2.226,1.005,2.226,2.239v3.899
		C23.639,23.816,22.641,24.821,21.414,24.821L21.414,24.821z"/>
	<path id="Fill-16" fill="#AAAAAA" d="M58.408,62.8c-0.324,0-0.649-0.116-0.909-0.353c-0.553-0.505-0.596-1.365-0.094-1.922
		c2.199-2.441,3.32-5.598,3.158-8.889c-0.163-3.292-1.59-6.32-4.018-8.531c-0.554-0.505-0.597-1.365-0.096-1.922
		c0.503-0.559,1.357-0.6,1.913-0.095c2.963,2.698,4.705,6.397,4.904,10.413c0.197,4.016-1.173,7.87-3.857,10.853
		C59.146,62.649,58.777,62.8,58.408,62.8"/>
	<path id="Fill-17" fill="#AAAAAA" d="M23.463,33.839c0,1.89-1.523,3.421-3.402,3.421c-1.877,0-3.4-1.531-3.4-3.421
		s1.523-3.421,3.4-3.421C21.94,30.418,23.463,31.95,23.463,33.839"/>
</g>
</svg>
